<?xml version="1.0" encoding="UTF-8" standalone="no"?>
<!-- Created with Inkscape (http://www.inkscape.org/) -->

<svg
   width="1920mm"
   height="1920mm"
   id="svg2"
   sodipodi:version="0.32"
   inkscape:version="1.2.1 (9c6d41e410, 2022-07-14, custom)"
   sodipodi:docname="semantik-d.svg"
   version="1.1"
   inkscape:export-filename="hi48-app-semantik-d.png"
   inkscape:export-xdpi="4.0640001"
   inkscape:export-ydpi="4.0640001"
   xmlns:inkscape="http://www.inkscape.org/namespaces/inkscape"
   xmlns:sodipodi="http://sodipodi.sourceforge.net/DTD/sodipodi-0.dtd"
   xmlns="http://www.w3.org/2000/svg"
   xmlns:svg="http://www.w3.org/2000/svg"
   xmlns:rdf="http://www.w3.org/1999/02/22-rdf-syntax-ns#"
   xmlns:cc="http://creativecommons.org/ns#"
   xmlns:dc="http://purl.org/dc/elements/1.1/">
  <defs
     id="defs4" />
  <sodipodi:namedview
     id="base"
     pagecolor="#ffffff"
     bordercolor="#666666"
     borderopacity="1.0"
     inkscape:pageopacity="0.0"
     inkscape:pageshadow="2"
     inkscape:zoom="0.0625"
     inkscape:cx="3128"
     inkscape:cy="3120"
     inkscape:document-units="px"
     inkscape:current-layer="layer1"
     showguides="true"
     inkscape:guide-bbox="true"
     inkscape:window-width="1338"
     inkscape:window-height="815"
     inkscape:window-x="42"
     inkscape:window-y="79"
     showgrid="false"
     inkscape:window-maximized="0"
     inkscape:showpageshadow="2"
     inkscape:pagecheckerboard="0"
     inkscape:deskcolor="#d1d1d1" />
  <metadata
     id="metadata7">
    <rdf:RDF>
      <cc:Work
         rdf:about="">
        <dc:format>image/svg+xml</dc:format>
        <dc:type
           rdf:resource="http://purl.org/dc/dcmitype/StillImage" />
      </cc:Work>
    </rdf:RDF>
  </metadata>
  <g
     inkscape:label="Calque 1"
     inkscape:groupmode="layer"
     id="layer1">
    <rect
       style="fill:#550000;fill-opacity:1;fill-rule:nonzero;stroke:#000000;stroke-width:5.45035;stroke-linejoin:round;stroke-miterlimit:4;stroke-dasharray:none;stroke-opacity:1"
       id="rect1944"
       width="1461.3436"
       height="2115.7939"
       x="2900.7756"
       y="5129.3252"
       inkscape:export-filename="hi48-app-semantik-d.png"
       inkscape:export-xdpi="1.1918535"
       inkscape:export-ydpi="1.1918535" />
    <path
       sodipodi:type="star"
       style="fill:#d719ec;fill-opacity:1;fill-rule:nonzero;stroke:#000000;stroke-width:0.8;stroke-linejoin:round;stroke-miterlimit:4;stroke-dasharray:none;stroke-opacity:1"
       id="path1942"
       sodipodi:sides="10"
       sodipodi:cx="-377.14285"
       sodipodi:cy="-7.6378174"
       sodipodi:r1="402.0864"
       sodipodi:r2="403.06357"
       sodipodi:arg1="0.15697129"
       sodipodi:arg2="-1.9498718"
       inkscape:flatsided="false"
       inkscape:rounded="0"
       inkscape:randomized="0"
       d="M 20.000004,55.219326 -526.30126,-382.08676 -92.794034,276.64939 -277.71897,-398.24649 -314.19966,389.49141 -67.113228,-265.20698 -559.64744,350.64356 25.071736,-33.784802 -735.38467,174.9444 -36.375603,207.62463 -774.28571,-70.49496 l 546.30126,437.30609 -433.50722,-658.73616 184.92493,674.89588 36.48069,-787.73789 -247.08643,654.69838 492.53421,-615.85053 L -779.35744,18.509168 -18.901031,-190.22003 -717.9101,-222.90027 Z"
       transform="matrix(9.0314949,-0.42187464,0.4433478,8.5940618,7040.9974,3315.7591)"
       inkscape:export-filename="hi48-app-semantik-d.png"
       inkscape:export-xdpi="1"
       inkscape:export-ydpi="1" />
  </g>
</svg>
